EDA_peer_Li Zhang
…
# type your code for Question 3 here, and Knit
ames_train_neighbor <- ames_train %>%
  select(Neighborhood, price) %>%
  group_by(Neighborhood) %>%
  summarise(mean = mean(price, na.rm=TRUE), median = median(price, na.rm=TRUE), std = sd(price, na.rm=TRUE))

# sort and display neighborhood housing price based on median or std
print(arrange(ames_train_neighbor, median))

## # A tibble: 27 x 4
##    Neighborhood    mean median    std
##    <fct>          <dbl>  <dbl>  <dbl>
##  1 MeadowV       92947.  85750 18940.
##  2 BrDale        98930   98750 13338.
##  3 IDOTRR        97621.  99500 31530.
##  4 OldTown      120226. 120000 36430.
##  5 Blueste      125800  123900 10381.
##  6 BrkSide      122473. 124000 37310.
##  7 Edwards      136322. 127250 54852.
##  8 SWISU        130620. 134000 27376.
##  9 Sawyer       139313. 136000 21216.
## 10 NAmes        141356. 139900 27268.
## # ... with 17 more rows

print(arrange(ames_train_neighbor, desc(median)))

## # A tibble: 27 x 4
##    Neighborhood    mean  median     std
##    <fct>          <dbl>   <dbl>   <dbl>
##  1 StoneBr      339316. 340692. 123459.
##  2 NridgHt      333647. 336860  105089.
##  3 NoRidge      295845. 290000   35889.
##  4 GrnHill      280000  280000   70711.
##  5 Timber       265192. 232500   84030.
##  6 Somerst      234596. 221650   65199.
##  7 Greens       198562. 212625   29063.
##  8 Veenker      233650  205750   72545.
##  9 Crawfor      204197. 205000   71268.
## 10 CollgCr      196951. 195800   52786.
## # ... with 17 more rows

print(arrange(ames_train_neighbor, desc(std)))

## # A tibble: 27 x 4
##    Neighborhood    mean  median     std
##    <fct>          <dbl>   <dbl>   <dbl>
##  1 StoneBr      339316. 340692. 123459.
##  2 NridgHt      333647. 336860  105089.
##  3 Timber       265192. 232500   84030.
##  4 Veenker      233650  205750   72545.
##  5 Crawfor      204197. 205000   71268.
##  6 GrnHill      280000  280000   70711.
##  7 Somerst      234596. 221650   65199.
##  8 Edwards      136322. 127250   54852.
##  9 CollgCr      196951. 195800   52786.
## 10 SawyerW      183101  182500   48354.
## # ... with 17 more rows
…
