Capstone Quiz I
…
Timber

Veenker

NridgHt

# type your code for Question 3 here, and Knit
ames_train %>% 
  select(Neighborhood, price) %>% 
  group_by(Neighborhood) %>% 
  summarise(avg = mean(price, na.rm=TRUE), std = sd(price, na.rm=TRUE)) %>% 
  arrange(desc(std))

## # A tibble: 27 x 3
##    Neighborhood     avg     std
##    <fct>          <dbl>   <dbl>
##  1 StoneBr      339316. 123459.
##  2 NridgHt      333647. 105089.
##  3 Timber       265192.  84030.
##  4 Veenker      233650   72545.
##  5 Crawfor      204197.  71268.
##  6 GrnHill      280000   70711.
##  7 Somerst      234596.  65199.
##  8 Edwards      136322.  54852.
##  9 CollgCr      196951.  52786.
## 10 SawyerW      183101   48354.
## # ... with 17 more rows
…
