Exploring the BRFSS data
…
##       genhlth          sleptim1          sex        
##  Excellent: 84821   Min.   : 1.000   Male  :198148  
##  Very good:157832   1st Qu.: 6.000   Female:284455  
##  Good     :148299   Median : 7.000                  
##  Fair     : 65012   Mean   : 7.051                  
##  Poor     : 26639   3rd Qu.: 8.000                  
##                     Max.   :24.000

df1 %>%
  group_by(sleptim1) %>%
  summarise(count=n())

## # A tibble: 24 x 2
##    sleptim1  count
##       <int>  <int>
##  1        1    228
##  2        2   1063
##  3        3   3466
##  4        4  14194
##  5        5  33290
##  6        6 105880
##  7        7 142090
##  8        8 140497
##  9        9  23688
## 10       10  12030
## # ... with 14 more rows
…
